EESchema Schematic File Version 2
LIBS:power
LIBS:device
LIBS:transistors
LIBS:conn
LIBS:linear
LIBS:regul
LIBS:74xx
LIBS:cmos4000
LIBS:adc-dac
LIBS:memory
LIBS:xilinx
LIBS:microcontrollers
LIBS:dsp
LIBS:microchip
LIBS:analog_switches
LIBS:motorola
LIBS:texas
LIBS:intel
LIBS:audio
LIBS:interface
LIBS:digital-audio
LIBS:philips
LIBS:display
LIBS:cypress
LIBS:siliconi
LIBS:opto
LIBS:atmel
LIBS:contrib
LIBS:valves
LIBS:my-power-supplies
LIBS:my-switches
LIBS:power-supply-cache
EELAYER 25 0
EELAYER END
$Descr A4 11693 8268
encoding utf-8
Sheet 1 1
Title ""
Date ""
Rev ""
Comp ""
Comment1 ""
Comment2 ""
Comment3 ""
Comment4 ""
$EndDescr
$Comp
L CONN_01X03 P1
U 1 1 5C360751
P 2700 3200
F 0 "P1" H 2700 3400 50  0000 C CNN
F 1 "230V" V 2800 3200 50  0000 C CNN
F 2 "" H 2700 3200 50  0000 C CNN
F 3 "" H 2700 3200 50  0000 C CNN
	1    2700 3200
	-1   0    0    1   
$EndComp
$Comp
L IRM-XX-XX U1
U 1 1 5C3607C2
P 5050 2700
F 0 "U1" H 5050 2950 60  0000 C CNN
F 1 "LRS-100-12" H 4800 2450 60  0000 L CNN
F 2 "" H 5050 2700 60  0000 C CNN
F 3 "" H 5050 2700 60  0000 C CNN
	1    5050 2700
	1    0    0    -1  
$EndComp
$Comp
L IRM-XX-XX U2
U 1 1 5C360833
P 5050 3600
F 0 "U2" H 5050 3850 60  0000 C CNN
F 1 "LRS-100-12" H 4800 3350 60  0000 L CNN
F 2 "" H 5050 3600 60  0000 C CNN
F 3 "" H 5050 3600 60  0000 C CNN
	1    5050 3600
	1    0    0    -1  
$EndComp
$Comp
L F_Small F1
U 1 1 5C3608A0
P 3200 3100
F 0 "F1" H 3160 3160 50  0000 L CNN
F 1 "2A" H 3150 3050 50  0000 L CNN
F 2 "" H 3200 3100 50  0000 C CNN
F 3 "" H 3200 3100 50  0000 C CNN
	1    3200 3100
	1    0    0    -1  
$EndComp
Wire Wire Line
	2900 3100 3100 3100
$Comp
L SWITCH-SPDT SW1
U 1 1 5C360936
P 3750 3100
F 0 "SW1" H 3750 3250 50  0000 C CNN
F 1 "POWER" H 3725 2950 50  0000 C CNN
F 2 "" H 3750 3100 50  0000 C CNN
F 3 "" H 3750 3100 50  0000 C CNN
	1    3750 3100
	1    0    0    -1  
$EndComp
Wire Wire Line
	3500 3100 3300 3100
Wire Wire Line
	4400 2600 4200 2600
Wire Wire Line
	4200 2600 4200 3150
Wire Wire Line
	4200 3150 4200 3500
Wire Wire Line
	4200 3500 4400 3500
Wire Wire Line
	4200 3150 4100 3150
Connection ~ 4200 3150
Wire Wire Line
	4300 3700 4400 3700
Wire Wire Line
	4300 2800 4300 3300
Wire Wire Line
	4300 3300 4300 3700
Wire Wire Line
	4300 2800 4400 2800
Wire Wire Line
	2900 3300 4300 3300
Connection ~ 4300 3300
$Comp
L output-control U3
U 1 1 5C360B3F
P 6600 3400
F 0 "U3" H 7375 3150 60  0000 C CNN
F 1 "output-control" H 7375 3300 60  0000 C CNN
F 2 "" H 6600 3400 60  0000 C CNN
F 3 "" H 6600 3400 60  0000 C CNN
	1    6600 3400
	1    0    0    -1  
$EndComp
Wire Wire Line
	6400 3400 6200 3400
Wire Wire Line
	6200 3400 6200 2600
Wire Wire Line
	6200 2600 5700 2600
Wire Wire Line
	5700 2800 6150 2800
Wire Wire Line
	6150 2800 6150 3550
Wire Wire Line
	6150 3550 6400 3550
Wire Wire Line
	6400 3700 6100 3700
Wire Wire Line
	6100 3700 6100 3500
Wire Wire Line
	6100 3500 5700 3500
Wire Wire Line
	5700 3700 6050 3700
Wire Wire Line
	6050 3700 6050 3850
Wire Wire Line
	6050 3850 6400 3850
$Comp
L SWITCH-SPDT SW2
U 1 1 5C360F05
P 5850 4050
F 0 "SW2" H 5900 4250 50  0000 C CNN
F 1 "OUTPUT" H 5825 3900 50  0000 C CNN
F 2 "" H 5850 4050 50  0000 C CNN
F 3 "" H 5850 4050 50  0000 C CNN
	1    5850 4050
	1    0    0    1   
$EndComp
Wire Wire Line
	6200 4000 6400 4000
Wire Wire Line
	5600 4050 5500 4050
Wire Wire Line
	5500 4050 5500 4150
Wire Wire Line
	5500 4150 6400 4150
$Comp
L Led_Small D1
U 1 1 5C361066
P 7100 4750
F 0 "D1" H 7200 4800 50  0000 L CNN
F 1 "BLUE-LED" H 6650 4800 50  0000 L CNN
F 2 "" V 7100 4750 50  0000 C CNN
F 3 "" V 7100 4750 50  0000 C CNN
	1    7100 4750
	0    -1   -1   0   
$EndComp
$Comp
L Led_Small D2
U 1 1 5C3610DE
P 7400 4750
F 0 "D2" H 7500 4800 50  0000 L CNN
F 1 "RED-LED" H 6950 4800 50  0000 L CNN
F 2 "" V 7400 4750 50  0000 C CNN
F 3 "" V 7400 4750 50  0000 C CNN
	1    7400 4750
	0    -1   -1   0   
$EndComp
Wire Wire Line
	7400 4450 7400 4650
Wire Wire Line
	7100 4650 7100 4450
Wire Wire Line
	7100 4850 7100 4950
Wire Wire Line
	7100 4950 7250 4950
Wire Wire Line
	7250 4950 7250 4450
Wire Wire Line
	7400 4850 7400 4950
Wire Wire Line
	7400 4950 7550 4950
Wire Wire Line
	7550 4950 7550 4450
Wire Wire Line
	8700 3800 8200 3800
$Comp
L Earth #PWR?
U 1 1 5C3615A9
P 3000 3500
F 0 "#PWR?" H 3000 3250 50  0001 C CNN
F 1 "Earth" H 3000 3350 50  0001 C CNN
F 2 "" H 3000 3500 50  0000 C CNN
F 3 "" H 3000 3500 50  0000 C CNN
	1    3000 3500
	1    0    0    -1  
$EndComp
Wire Wire Line
	3000 3500 3000 3200
Wire Wire Line
	3000 3200 2900 3200
$Comp
L CONN_01X01 P?
U 1 1 5C361798
P 8900 3800
F 0 "P?" H 8900 3900 50  0000 C CNN
F 1 "GND" V 9000 3800 50  0000 C CNN
F 2 "" H 8900 3800 50  0000 C CNN
F 3 "" H 8900 3800 50  0000 C CNN
	1    8900 3800
	1    0    0    -1  
$EndComp
$Comp
L CONN_01X01 P?
U 1 1 5C36180E
P 8900 3500
F 0 "P?" H 8900 3600 50  0000 C CNN
F 1 "+12V" V 9000 3500 50  0000 C CNN
F 2 "" H 8900 3500 50  0000 C CNN
F 3 "" H 8900 3500 50  0000 C CNN
	1    8900 3500
	1    0    0    -1  
$EndComp
$Comp
L CONN_01X01 P?
U 1 1 5C361867
P 8900 4100
F 0 "P?" H 8900 4200 50  0000 C CNN
F 1 "-12V" V 9000 4100 50  0000 C CNN
F 2 "" H 8900 4100 50  0000 C CNN
F 3 "" H 8900 4100 50  0000 C CNN
	1    8900 4100
	1    0    0    -1  
$EndComp
Wire Wire Line
	8700 3500 8500 3500
Wire Wire Line
	8500 3500 8500 3650
Wire Wire Line
	8500 3650 8200 3650
Wire Wire Line
	8200 3950 8500 3950
Wire Wire Line
	8500 3950 8500 4100
Wire Wire Line
	8500 4100 8700 4100
$EndSCHEMATC
