EESchema Schematic File Version 2
LIBS:power
LIBS:device
LIBS:transistors
LIBS:conn
LIBS:linear
LIBS:regul
LIBS:74xx
LIBS:cmos4000
LIBS:adc-dac
LIBS:memory
LIBS:xilinx
LIBS:microcontrollers
LIBS:dsp
LIBS:microchip
LIBS:analog_switches
LIBS:motorola
LIBS:texas
LIBS:intel
LIBS:audio
LIBS:interface
LIBS:digital-audio
LIBS:philips
LIBS:display
LIBS:cypress
LIBS:siliconi
LIBS:opto
LIBS:atmel
LIBS:contrib
LIBS:valves
LIBS:relay-dpdt
LIBS:relay-spdt
LIBS:output-control-3.3-5-cache
EELAYER 25 0
EELAYER END
$Descr A4 11693 8268
encoding utf-8
Sheet 1 1
Title ""
Date ""
Rev ""
Comp ""
Comment1 ""
Comment2 ""
Comment3 ""
Comment4 ""
$EndDescr
$Comp
L CONN_01X02 P4
U 1 1 58B9E391
P 4050 2950
F 0 "P4" H 4050 3100 50  0000 C CNN
F 1 "OUT-PS1" V 4150 3000 50  0000 C CNN
F 2 "library:JST-B2P-VH" H 4050 2950 50  0001 C CNN
F 3 "" H 4050 2950 50  0000 C CNN
	1    4050 2950
	-1   0    0    1   
$EndComp
$Comp
L CONN_01X02 P5
U 1 1 58B9E427
P 4050 3850
F 0 "P5" H 4050 4000 50  0000 C CNN
F 1 "OUT-PS2" V 4150 3800 50  0000 C CNN
F 2 "library:JST-B2P-VH" H 4050 3850 50  0001 C CNN
F 3 "" H 4050 3850 50  0000 C CNN
	1    4050 3850
	-1   0    0    -1  
$EndComp
$Comp
L CONN_01X03 P7
U 1 1 58B9E617
P 6850 3500
F 0 "P7" H 6850 3650 50  0000 C CNN
F 1 "OUT1" V 6950 3500 50  0000 C CNN
F 2 "library:JST-B3P-VH" H 6850 3500 50  0001 C CNN
F 3 "" H 6850 3500 50  0000 C CNN
	1    6850 3500
	1    0    0    -1  
$EndComp
$Comp
L CONN_01X02 P6
U 1 1 58B9EA46
P 4050 4550
F 0 "P6" H 4050 4700 50  0000 C CNN
F 1 "SW-OUT" V 4150 4600 50  0000 C CNN
F 2 "Pin_Headers:Pin_Header_Straight_1x02" H 4050 4550 50  0001 C CNN
F 3 "" H 4050 4550 50  0000 C CNN
	1    4050 4550
	-1   0    0    1   
$EndComp
$Comp
L RELAY_SPDT K1
U 1 1 58BA0BE9
P 5350 2850
F 0 "K1" H 5300 2900 50  0000 C CNN
F 1 "RELAY_SPDT" H 5350 2350 50  0000 C CNN
F 2 "library:Relay_SPDT_Finder-mini" H 5350 2850 50  0001 C CNN
F 3 "" H 5350 2850 50  0000 C CNN
	1    5350 2850
	1    0    0    -1  
$EndComp
$Comp
L RELAY_SPDT K2
U 1 1 58BA0C2C
P 5350 3750
F 0 "K2" H 5300 3800 50  0000 C CNN
F 1 "RELAY_SPDT" H 5350 3250 50  0000 C CNN
F 2 "library:Relay_SPDT_Finder-mini" H 5350 3750 50  0001 C CNN
F 3 "" H 5350 3750 50  0000 C CNN
	1    5350 3750
	1    0    0    -1  
$EndComp
$Comp
L R R2
U 1 1 58BCA989
P 4850 4300
F 0 "R2" V 4930 4300 50  0000 C CNN
F 1 "680" V 4850 4300 50  0000 C CNN
F 2 "Resistors_ThroughHole:Resistor_Horizontal_RM10mm" V 4780 4300 50  0001 C CNN
F 3 "" H 4850 4300 50  0000 C CNN
	1    4850 4300
	-1   0    0    1   
$EndComp
$Comp
L LED D1
U 1 1 58BCA9FE
P 4850 4750
F 0 "D1" H 4850 4850 50  0000 C CNN
F 1 "BLUE LED" H 4850 4650 50  0000 C CNN
F 2 "Pin_Headers:Pin_Header_Straight_1x02" H 4850 4750 50  0001 C CNN
F 3 "" H 4850 4750 50  0000 C CNN
	1    4850 4750
	0    -1   -1   0   
$EndComp
$Comp
L R R3
U 1 1 58BCABF9
P 6000 4150
F 0 "R3" V 6080 4150 50  0000 C CNN
F 1 "270" V 6000 4150 50  0000 C CNN
F 2 "Resistors_ThroughHole:Resistor_Horizontal_RM10mm" V 5930 4150 50  0001 C CNN
F 3 "" H 6000 4150 50  0000 C CNN
	1    6000 4150
	-1   0    0    1   
$EndComp
$Comp
L LED D2
U 1 1 58BCACB5
P 6000 4750
F 0 "D2" H 6000 4850 50  0000 C CNN
F 1 "RED LED" H 6000 4650 50  0000 C CNN
F 2 "Pin_Headers:Pin_Header_Straight_1x02" H 6000 4750 50  0001 C CNN
F 3 "" H 6000 4750 50  0000 C CNN
	1    6000 4750
	0    -1   -1   0   
$EndComp
Wire Wire Line
	6250 3600 6650 3600
Wire Wire Line
	6250 3900 6250 3600
Connection ~ 6000 3900
Wire Wire Line
	6000 3900 6000 4000
Wire Wire Line
	4250 2900 4950 2900
Wire Wire Line
	4700 3200 4950 3200
Wire Wire Line
	4600 4000 4950 4000
Wire Wire Line
	4600 3100 4600 4600
Wire Wire Line
	4600 4600 4250 4600
Wire Wire Line
	4400 4500 4250 4500
Wire Wire Line
	4400 3000 4400 5050
Wire Wire Line
	4700 4100 4950 4100
Wire Wire Line
	4400 3000 4250 3000
Wire Wire Line
	4950 3100 4600 3100
Connection ~ 4600 4000
Connection ~ 4700 3200
Connection ~ 4700 2900
Wire Wire Line
	4400 3500 6650 3500
Connection ~ 4400 3500
Wire Wire Line
	5750 3900 6250 3900
Wire Wire Line
	4400 3900 4250 3900
Wire Wire Line
	4250 3800 4950 3800
Wire Wire Line
	4850 3700 4850 4150
Connection ~ 4850 3800
Wire Wire Line
	4700 2800 4700 4100
Wire Wire Line
	5750 3000 6250 3000
Wire Wire Line
	6250 3000 6250 3400
Wire Wire Line
	6250 3400 6650 3400
Wire Wire Line
	6000 4300 6000 4550
Wire Wire Line
	4850 4450 4850 4550
Connection ~ 4400 3900
Connection ~ 4400 4500
Wire Wire Line
	4400 5050 6000 5050
Wire Wire Line
	6000 5050 6000 4950
Wire Wire Line
	4850 4950 4850 5050
Connection ~ 4850 5050
$Comp
L +5V #PWR01
U 1 1 58D7E10D
P 4850 3700
F 0 "#PWR01" H 4850 3550 50  0001 C CNN
F 1 "+5V" H 4850 3840 50  0000 C CNN
F 2 "" H 4850 3700 50  0000 C CNN
F 3 "" H 4850 3700 50  0000 C CNN
	1    4850 3700
	1    0    0    -1  
$EndComp
$Comp
L +3V3 #PWR02
U 1 1 58D7E135
P 4700 2800
F 0 "#PWR02" H 4700 2650 50  0001 C CNN
F 1 "+3V3" H 4700 2940 50  0000 C CNN
F 2 "" H 4700 2800 50  0000 C CNN
F 3 "" H 4700 2800 50  0000 C CNN
	1    4700 2800
	1    0    0    -1  
$EndComp
$EndSCHEMATC
